…
    colnames(df)

    ## [1] " CN0100100000000 "                         
    ## [2] "  01  "                                    
    ## [3] "  001  "                                   
    ## [4] " Autauga County, AL                       "
    ## [5] "   Nov-18  "                               
    ## [6] "     25,875 "                              
    ## [7] "     25,047 "                              
    ## [8] "      828 "                                
    ## [9] "     3.2"

    df

    ## # A tibble: 45,069 x 9
    ##    ` CN01001000000~ `  01  ` `  001  ` ` Autauga Count~ `   Nov-18  `
    ##    <chr>            <chr>    <chr>     <chr>            <chr>        
    ##  1 " CN01003000000~ "  01  " "  003  " " Baldwin Count~ "   Nov-18  "
    ##  2 " CN01005000000~ "  01  " "  005  " " Barbour Count~ "   Nov-18  "
    ##  3 " CN01007000000~ "  01  " "  007  " " Bibb County, ~ "   Nov-18  "
    ##  4 " CN01009000000~ "  01  " "  009  " " Blount County~ "   Nov-18  "
    ##  5 " CN01011000000~ "  01  " "  011  " " Bullock Count~ "   Nov-18  "
    ##  6 " CN01013000000~ "  01  " "  013  " " Butler County~ "   Nov-18  "
    ##  7 " CN01015000000~ "  01  " "  015  " " Calhoun Count~ "   Nov-18  "
    ##  8 " CN01017000000~ "  01  " "  017  " " Chambers Coun~ "   Nov-18  "
    ##  9 " CN01019000000~ "  01  " "  019  " " Cherokee Coun~ "   Nov-18  "
    ## 10 " CN01021000000~ "  01  " "  021  " " Chilton Count~ "   Nov-18  "
    ## # ... with 45,059 more rows, and 4 more variables: ` 25,875 ` <chr>, ` 25,047
    ## #   ` <chr>, ` 828 ` <chr>, ` 3.2` <chr>

    table = data.frame()
    table <- rbind(table, df[1:45069,])
    table <- rbind(colnames(df), table)
    table

    ## # A tibble: 45,070 x 9
    ##    ` CN01001000000~ `  01  ` `  001  ` ` Autauga Count~ `   Nov-18  `
    ##    <chr>            <chr>    <chr>     <chr>            <chr>        
    ##  1 " CN01001000000~ "  01  " "  001  " " Autauga Count~ "   Nov-18  "
    ##  2 " CN01003000000~ "  01  " "  003  " " Baldwin Count~ "   Nov-18  "
    ##  3 " CN01005000000~ "  01  " "  005  " " Barbour Count~ "   Nov-18  "
    ##  4 " CN01007000000~ "  01  " "  007  " " Bibb County, ~ "   Nov-18  "
    ##  5 " CN01009000000~ "  01  " "  009  " " Blount County~ "   Nov-18  "
    ##  6 " CN01011000000~ "  01  " "  011  " " Bullock Count~ "   Nov-18  "
    ##  7 " CN01013000000~ "  01  " "  013  " " Butler County~ "   Nov-18  "
    ##  8 " CN01015000000~ "  01  " "  015  " " Calhoun Count~ "   Nov-18  "
    ##  9 " CN01017000000~ "  01  " "  017  " " Chambers Coun~ "   Nov-18  "
    ## 10 " CN01019000000~ "  01  " "  019  " " Cherokee Coun~ "   Nov-18  "
    ## # ... with 45,060 more rows, and 4 more variables: ` 25,875 ` <chr>, ` 25,047
    ## #   ` <chr>, ` 828 ` <chr>, ` 3.2` <chr>

    names(table)  = c("area code","fips_state","fips_county","area_title","Period","labor_force","Employed","Level","Rate")
    table

    ## # A tibble: 45,070 x 9
    ##    `area code` fips_state fips_county area_title Period labor_force Employed
    ##    <chr>       <chr>      <chr>       <chr>      <chr>  <chr>       <chr>   
    ##  1 " CN010010~ "  01  "   "  001  "   " Autauga~ "   N~ "     25,8~ "     2~
    ##  2 " CN010030~ "  01  "   "  003  "   " Baldwin~ "   N~ "     92,7~ "     8~
    ##  3 " CN010050~ "  01  "   "  005  "   " Barbour~ "   N~ "      8,2~ "      ~
    ##  4 " CN010070~ "  01  "   "  007  "   " Bibb Co~ "   N~ "      8,7~ "      ~
    ##  5 " CN010090~ "  01  "   "  009  "   " Blount ~ "   N~ "     25,0~ "     2~
    ##  6 " CN010110~ "  01  "   "  011  "   " Bullock~ "   N~ "      4,7~ "      ~
    ##  7 " CN010130~ "  01  "   "  013  "   " Butler ~ "   N~ "      8,8~ "      ~
    ##  8 " CN010150~ "  01  "   "  015  "   " Calhoun~ "   N~ "     45,8~ "     4~
    ##  9 " CN010170~ "  01  "   "  017  "   " Chamber~ "   N~ "     15,3~ "     1~
    ## 10 " CN010190~ "  01  "   "  019  "   " Cheroke~ "   N~ "     11,5~ "     1~
    ## # ... with 45,060 more rows, and 2 more variables: Level <chr>, Rate <chr>

    table$fips_state = as.numeric(table$fips_state)
    table$fips_county = as.numeric(table$fips_county)
    table$labor_force = as.numeric(gsub(",","", table$labor_force))
    table$Rate = as.numeric(table$Rate)
    WIunemployment = table %>% 
      filter(fips_state == 55)

    WIunemployment

    ## # A tibble: 1,008 x 9
    ##    `area code` fips_state fips_county area_title Period labor_force Employed
    ##    <chr>            <dbl>       <dbl> <chr>      <chr>        <dbl> <chr>   
    ##  1 " CN550010~         55           1 " Adams C~ "   N~        8057 "      ~
    ##  2 " CN550030~         55           3 " Ashland~ "   N~        7712 "      ~
    ##  3 " CN550050~         55           5 " Barron ~ "   N~       24756 "     2~
    ##  4 " CN550070~         55           7 " Bayfiel~ "   N~        7491 "      ~
    ##  5 " CN550090~         55           9 " Brown C~ "   N~      143763 "    14~
    ##  6 " CN550110~         55          11 " Buffalo~ "   N~        6585 "      ~
    ##  7 " CN550130~         55          13 " Burnett~ "   N~        7217 "      ~
    ##  8 " CN550150~         55          15 " Calumet~ "   N~       27691 "     2~
    ##  9 " CN550170~         55          17 " Chippew~ "   N~       33564 "     3~
    ## 10 " CN550190~         55          19 " Clark C~ "   N~       18146 "     1~
    ## # ... with 998 more rows, and 2 more variables: Level <chr>, Rate <dbl>
…
    bridges %>%
      #filter(COUNTY_CODE_003 == "001") %>%
      select(MAX_SPAN_LEN_MT_048, COUNTY_CODE_003)

    ## # A tibble: 14,275 x 2
    ##    MAX_SPAN_LEN_MT_048 COUNTY_CODE_003
    ##                  <dbl> <chr>          
    ##  1                 5.5 051            
    ##  2                 7.3 051            
    ##  3                 6.1 115            
    ##  4                20.4 115            
    ##  5                 7.6 003            
    ##  6                 9.1 003            
    ##  7                 8.8 003            
    ##  8                19.5 115            
    ##  9                13.4 003            
    ## 10                15.2 003            
    ## # ... with 14,265 more rows
…
    ## 
    ## Attaching package: 'zoo'

    ## The following objects are masked from 'package:base':
    ## 
    ##     as.Date, as.Date.numeric

    with_pre <- total_bridges_join %>%
      mutate(pre =lag(Period), pre_rate = lag(Rate), pre_level = lag(Level)) %>%
      drop_na(pre)

    with_pre

    ## # A tibble: 1,007 x 16
    ##    COUNTY_CODE_003 number_of_bridg~ mean_max_span sufficient_rati~ opr_rating
    ##              <dbl>            <int>         <dbl>            <dbl>      <dbl>
    ##  1               1               41          11.7             91.2       1.41
    ##  2               1               41          11.7             91.2       1.41
    ##  3               1               41          11.7             91.2       1.41
    ##  4               1               41          11.7             91.2       1.41
    ##  5               1               41          11.7             91.2       1.41
    ##  6               1               41          11.7             91.2       1.41
    ##  7               1               41          11.7             91.2       1.41
    ##  8               1               41          11.7             91.2       1.41
    ##  9               1               41          11.7             91.2       1.41
    ## 10               1               41          11.7             91.2       1.41
    ## # ... with 997 more rows, and 11 more variables: `area code` <chr>,
    ## #   fips_state <dbl>, area_title <chr>, Period <chr>, labor_force <dbl>,
    ## #   Employed <chr>, Level <dbl>, Rate <dbl>, pre <chr>, pre_rate <dbl>,
    ## #   pre_level <dbl>
…
